{
    "extension_description": {
        "message": "修改瀏覽器的 User-Agent 字符串"
    },
    "options_entries_caption": {
        "message": "User-Agent 條目"
    },
    "options_entries_reset": {
        "message": "恢復到預設值"
    },
    "icon_title_enabled": {
        "message": "正在工作中"
    },
    "icon_title_disabled": {
        "message": "不在工作中"
    },
    "popup_item_options": {
        "message": "偏好設置…"
    },
    "popup_item_default": {
        "message": "預設"
    },
    "option_badge_text": {
        "message": "是否將使用者代理顯示為圖示上的徽章文本？",
        "description": "Text of checkbox option to show/hide the two to four letter abbreviations displayed ontop of the browser action icon"
    },
    "option_random_jitter": {
        "message": "隨機模式變動",
        "description": "Text of numeric option (0-100) for setting by how many per-cent the random-interval value should (on avarage) be varied"
    },
    "options_entries_reset_undo_text": {
        "message": "已恢復的預設值",
        "description": "Text of popup that is shown after the reset link has been clicked"
    },
    "options_entries_reset_undo_button": {
        "message": "撤銷重置",
        "description": "Label of button for undoing a reset (displayed below the text that asserts that the options have just been reset)"
    },
    "options_entries_switch_text": {
        "message": "切換到文字模式",
        "description": "Options page link for switching from table to text mode"
    },
    "options_entries_switch_table": {
        "message": "切換到桌面模式",
        "description": "Options page link for switching from text to table mode"
    },
    "options_entries_heading_enabled": {
        "message": "啟⁠用",
        "description": "Options page table editor heading for the column allowing to enabled or disable items"
    },
    "options_entries_heading_label": {
        "message": "標籤",
        "description": "Options page table editor heading for the column with user-facing User-Agent-String labels"
    },
    "options_entries_heading_category": {
        "message": "類⁠別",
        "description": "Options page table editor heading for the column with general category of the given User-Agent-String"
    },
    "options_entries_heading_string": {
        "message": "字串",
        "description": "Options page table editor heading for the column with the actual server-reported User-Agent-Strings"
    },
    "useragent_category_desktop": {
        "message": "桌面",
        "description": "Default category label for browsers on desktop devices"
    },
    "useragent_category_mobile": {
        "message": "行動裝置",
        "description": "Default category label for browsers on mobile devices"
    },
    "useragent_category_bot": {
        "message": "提供",
        "description": "Default category label for search engine bots"
    },
    "useragent_category_other": {
        "message": "其他",
        "description": "Default category label for unclassified client software"
    },
    "icon_title_random": {
        "message": "隨機模式",
        "description": "Text displayed in the browser action icon tooltip when the User-Agent header is choosen at random"
    },
    "icon_title_override_enabled": {
        "message": "由 Override 啟用",
        "description": "Text displayed in the browser action icon tooltip when request processing is being done because of an override being set"
    },
    "icon_title_override_disabled": {
        "message": "由 Override 禁用",
        "description": "Text displayed in the browser action icon tooltip when no request processing is being done because of an override being set"
    },
    "popup_item_override": {
        "message": "Override 域名",
        "description": "Label of the checkbox that can be used to switch from setting the global User-Agent string to a per-site value"
    },
    "popup_item_override_tpl": {
        "message": "“$HOSTNAME$”",
        "description": "Label of an individual selectable override domain"
    },
    "popup_item_random": {
        "message": "啟用隨機模式",
        "description": "The label of the menu item for enabling time-based User-Agent randomization"
    },
    "popup_item_random_categories": {
        "message": "分類：",
        "description": "The section header of the categories selection of random selection mode"
    },
    "popup_item_random_interval_mode_restart": {
        "message": "僅在啟動時",
        "description": "The label of the menu item for enabling the time-based User-Agent randomization only on extension and browser startup"
    },
    "popup_item_random_interval_mode_timed": {
        "message": "每個：",
        "description": "The label of the menu item for enabling the time-based User-Agent randomization at regular intervals"
    },
    "popup_item_random_interval_unit_minutes": {
        "message": "分鐘",
        "description": "A User-Agent randomization time interval"
    },
    "popup_item_random_interval_unit_hours": {
        "message": "小時",
        "description": "A User-Agent randomization time interval"
    },
    "popup_item_random_interval_unit_days": {
        "message": "日期",
        "description": "A User-Agent randomization time interval"
    }
}
