{
    "extension_description": {
        "message": "Leidžia lengvai nustelbti naudotojo agento eilutę",
        "description": "Extension description"
    },
    "option_badge_text": {
        "message": "Rodyti naudotojo agentą kaip teksto ženklelį ant piktogramos?",
        "description": "Text of checkbox option to show/hide the two to four letter abbreviations displayed ontop of the browser action icon"
    },
    "option_random_jitter": {
        "message": "Atsitiktinės veiksenos dispersija",
        "description": "Text of numeric option (0-100) for setting by how many per-cent the random-interval value should (on avarage) be varied"
    },
    "options_entries_caption": {
        "message": "Naudotojo agento įrašai",
        "description": "Header text of the entries editor in the extension options"
    },
    "options_entries_reset": {
        "message": "Atstatyti į numatytąsias reikšmes",
        "description": "Options page link for loading the entries defaults"
    },
    "options_entries_reset_undo_text": {
        "message": "Numatytosios reikšmės atkurtos",
        "description": "Text of popup that is shown after the reset link has been clicked"
    },
    "options_entries_reset_undo_button": {
        "message": "Atšaukti atstatymą",
        "description": "Label of button for undoing a reset (displayed below the text that asserts that the options have just been reset)"
    },
    "options_entries_switch_text": {
        "message": "Perjungti į tekstinę veikseną",
        "description": "Options page link for switching from table to text mode"
    },
    "options_entries_switch_table": {
        "message": "Perjungti į lentelės veikseną",
        "description": "Options page link for switching from text to table mode"
    },
    "options_entries_heading_enabled": {
        "message": "Įjungta",
        "description": "Options page table editor heading for the column allowing to enabled or disable items"
    },
    "options_entries_heading_label": {
        "message": "Etiketė",
        "description": "Options page table editor heading for the column with user-facing User-Agent-String labels"
    },
    "options_entries_heading_category": {
        "message": "Kategorija",
        "description": "Options page table editor heading for the column with general category of the given User-Agent-String"
    },
    "options_entries_heading_string": {
        "message": "Eilutė",
        "description": "Options page table editor heading for the column with the actual server-reported User-Agent-Strings"
    },
    "useragent_category_desktop": {
        "message": "Darbalaukio",
        "description": "Default category label for browsers on desktop devices"
    },
    "useragent_category_mobile": {
        "message": "Mobilieji",
        "description": "Default category label for browsers on mobile devices"
    },
    "useragent_category_bot": {
        "message": "Robotai",
        "description": "Default category label for search engine bots"
    },
    "useragent_category_other": {
        "message": "Kiti",
        "description": "Default category label for unclassified client software"
    },
    "icon_title_random": {
        "message": "Atsitiktinė veiksena",
        "description": "Text displayed in the browser action icon tooltip when the User-Agent header is choosen at random"
    },
    "icon_title_enabled": {
        "message": "Įjungta",
        "description": "Text displayed in the browser action icon tooltip when request processing is being done because of the global setting"
    },
    "icon_title_disabled": {
        "message": "Išjungta",
        "description": "Text displayed in the browser action icon tooltip when no request processing is being done because of the global setting"
    },
    "icon_title_override_enabled": {
        "message": "Įjungta pagal nustelbimą",
        "description": "Text displayed in the browser action icon tooltip when request processing is being done because of an override being set"
    },
    "icon_title_override_disabled": {
        "message": "Išjungta pagal nustelbimą",
        "description": "Text displayed in the browser action icon tooltip when no request processing is being done because of an override being set"
    },
    "popup_item_options": {
        "message": "Nuostatos…",
        "description": "The label of the menu item for opening the extension's preference page"
    },
    "popup_item_override": {
        "message": "Nustelbti sričiai",
        "description": "Label of the checkbox that can be used to switch from setting the global User-Agent string to a per-site value"
    },
    "popup_item_override_tpl": {
        "message": "“$HOSTNAME$”",
        "description": "Label of an individual selectable override domain",
        "placeholders": {
            "hostname": {
                "content": "$1",
                "example": "https://www.example.net"
            }
        }
    },
    "popup_item_random": {
        "message": "Įjungti atsitiktinę veikseną",
        "description": "The label of the menu item for enabling time-based User-Agent randomization"
    },
    "popup_item_random_categories": {
        "message": "Kategorijos:",
        "description": "The section header of the categories selection of random selection mode"
    },
    "popup_item_random_interval_mode_restart": {
        "message": "Tik paleidus",
        "description": "The label of the menu item for enabling the time-based User-Agent randomization only on extension and browser startup"
    },
    "popup_item_random_interval_mode_timed": {
        "message": "Kas:",
        "description": "The label of the menu item for enabling the time-based User-Agent randomization at regular intervals"
    },
    "popup_item_random_interval_unit_minutes": {
        "message": "min.",
        "description": "A User-Agent randomization time interval"
    },
    "popup_item_random_interval_unit_hours": {
        "message": "val.",
        "description": "A User-Agent randomization time interval"
    },
    "popup_item_random_interval_unit_days": {
        "message": "d.",
        "description": "A User-Agent randomization time interval"
    },
    "popup_item_default": {
        "message": "Numatytasis",
        "description": "The label of the menu item that disables the User-Agent-Overrider and lets the browser send its default User-Agent-String"
    },
    "option_popup_override_size": {
        "message": "Priverstinai naudoti numatytąjį iškylančiojo lango/meniu dydį",
        "description": "Text of checkbox option to force the extension popup to a static/larger size than it would normally be according to the browser defaults (note that this also has a description attached)"
    },
    "option_popup_override_size_description": {
        "message": "Įjunkite, jei jūsų įrenginyje yra atvaizduojamas per mažas iškylantysis langas",
        "description": "Description text of checkbox option to force the extension popup to a static/larger size than it would normally be according to the browser defaults"
    }
}
