{
    "extension_description": {
        "message": "ブラウザーの User-Agent 文字列を簡単に上書きします",
        "description": "Extension description"
    },
    "options_entries_caption": {
        "message": "User-Agent エントリー",
        "description": "Header text of the entries editor in the extension options"
    },
    "options_entries_reset": {
        "message": "デフォルト値にリセット",
        "description": "Options page link for loading the entries defaults"
    },
    "options_entries_reset_undo_text": {
        "message": "デフォルト値に復元しました",
        "description": "Text of popup that is shown after the reset link has been clicked"
    },
    "options_entries_reset_undo_button": {
        "message": "リセットを元に戻す",
        "description": "Label of button for undoing a reset (displayed below the text that asserts that the options have just been reset)"
    },
    "options_entries_switch_text": {
        "message": "テキストモードに切り替え",
        "description": "Options page link for switching from table to text mode"
    },
    "options_entries_switch_table": {
        "message": "テーブルモードに切り替え",
        "description": "Options page link for switching from text to table mode"
    },
    "options_entries_heading_label": {
        "message": "ラベル",
        "description": "Options page table editor heading for the column with user-facing User-Agent-String labels"
    },
    "options_entries_heading_category": {
        "message": "カテゴリー",
        "description": "Options page table editor heading for the column with general category of the given User-Agent-String"
    },
    "options_entries_heading_string": {
        "message": "文字列",
        "description": "Options page table editor heading for the column with the actual server-reported User-Agent-Strings"
    },
    "useragent_category_desktop": {
        "message": "デスクトップ",
        "description": "Default category label for browsers on desktop devices"
    },
    "useragent_category_mobile": {
        "message": "モバイル",
        "description": "Default category label for browsers on mobile devices"
    },
    "useragent_category_bot": {
        "message": "ボット",
        "description": "Default category label for search engine bots"
    },
    "useragent_category_other": {
        "message": "その他",
        "description": "Default category label for unclassified client software"
    },
    "icon_title_random": {
        "message": "ランダムモード",
        "description": "Text displayed in the browser action icon tooltip when the User-Agent header is choosen at random"
    },
    "icon_title_enabled": {
        "message": "有効",
        "description": "Text displayed in the browser action icon tooltip when request processing is being done"
    },
    "icon_title_disabled": {
        "message": "無効",
        "description": "Text displayed in the browser action icon tooltip when no request processing is being done"
    },
    "popup_item_options": {
        "message": "環境設定…",
        "description": "The label of the menu item for opening the extension's preference page"
    },
    "popup_item_random": {
        "message": "ランダムモードを有効にします",
        "description": "The label of the menu item for enabling time-based User-Agent randomization"
    },
    "popup_item_random_categories": {
        "message": "カテゴリー:",
        "description": "The section header of the categories selection of random selection mode"
    },
    "popup_item_random_interval_mode_restart": {
        "message": "起動時のみ",
        "description": "The label of the menu item for enabling the time-based User-Agent randomization only on extension and browser startup"
    },
    "popup_item_random_interval_mode_timed": {
        "message": "間隔:",
        "description": "The label of the menu item for enabling the time-based User-Agent randomization at regular intervals"
    },
    "popup_item_random_interval_unit_minutes": {
        "message": "分",
        "description": "A User-Agent randomization time interval"
    },
    "popup_item_random_interval_unit_hours": {
        "message": "時間",
        "description": "A User-Agent randomization time interval"
    },
    "popup_item_random_interval_unit_days": {
        "message": "日",
        "description": "A User-Agent randomization time interval"
    },
    "popup_item_default": {
        "message": "デフォルト",
        "description": "The label of the menu item that disables the User-Agent-Overrider and lets the browser send its default User-Agent-String"
    },
    "option_badge_text": {
        "message": "アイコン上にバッジテキストとしてユーザーエージェントを表示しますか?",
        "description": "Text of checkbox option to show/hide the two to four letter abbreviations displayed ontop of the browser action icon"
    },
    "option_random_jitter": {
        "message": "ランダムモードの分散",
        "description": "Text of numeric option (0-100) for setting by how many per-cent the random-interval value should (on avarage) be varied"
    },
    "icon_title_override_enabled": {
        "message": "上書きが有効になっています",
        "description": "Text displayed in the browser action icon tooltip when request processing is being done because of an override being set"
    },
    "icon_title_override_disabled": {
        "message": "上書きは無効になっています",
        "description": "Text displayed in the browser action icon tooltip when no request processing is being done because of an override being set"
    },
    "popup_item_override": {
        "message": "ドメインの上書き",
        "description": "Label of the checkbox that can be used to switch from setting the global User-Agent string to a per-site value"
    },
    "popup_item_override_tpl": {
        "message": "“$HOSTNAME$”",
        "description": "Label of an individual selectable override domain"
    },
    "options_entries_heading_enabled": {
        "message": "有効",
        "description": "Options page table editor heading for the column allowing to enabled or disable items"
    },
    "option_popup_override_size": {
        "message": "既定のポップアップ/メニュー サイズに戻す",
        "description": "Text of checkbox option to force the extension popup to a static/larger size than it would normally be according to the browser defaults (note that this also has a description attached)"
    },
    "option_popup_override_size_description": {
        "message": "お使いのデバイスでポップアップが小さすぎる場合に有効にしてください",
        "description": "Description text of checkbox option to force the extension popup to a static/larger size than it would normally be according to the browser defaults"
    }
}
